{
  "store": [
    {
      "id": 1,
      "name": "A store",
      "opening_time": "8:00",
      "closing_time": "17:00",
      "adress": "place",
      "city": "Paris",
      "tags": [],
      "rating": 5,
      "price": 4.00,
      "remaining_baskets": 3,
      "background_image": "https://vivre-mieux-sa-vie.fr/sites/default/files/styles/scale_crop_1140x650/public/2018-06/xastuces-fruits-legumes.jpg,qitok=Mw-Kt3U0.pagespeed.ic.ttfhETUX1k.webp",
      "alt_background": "Photo de pains",
      "main_image": "",
      "alt_main": "logo store"

    },
    {
      "id": 2,
      "name": "A store",
      "opening_time": "8:00",
      "closing_time": "17:00",
      "adress": "place",
      "city": "Marseille",
      "tags": [],
      "rating": 5,
      "price": 3.00,
      "remaining_baskets": 3,
      "background_image": "https://vivre-mieux-sa-vie.fr/sites/default/files/styles/scale_crop_1140x650/public/2018-06/xastuces-fruits-legumes.jpg,qitok=Mw-Kt3U0.pagespeed.ic.ttfhETUX1k.webp",
      "alt_background": "Photo de pains",
      "main_image": "",
      "alt_main": "logo store"

    },
    {
      "id": 3,
      "name": "A store",
      "opening_time": "8:00",
      "closing_time": "17:00",
      "adress": "place",
      "city": "Lyon",
      "tags": [],
      "rating": 5,
      "price": 3.50,
      "remaining_baskets": 10,
      "background_image": "https://vivre-mieux-sa-vie.fr/sites/default/files/styles/scale_crop_1140x650/public/2018-06/xastuces-fruits-legumes.jpg,qitok=Mw-Kt3U0.pagespeed.ic.ttfhETUX1k.webp",
      "alt_background": "Photo de pains",
      "main_image": "",
      "alt_main": "logo store"
    }
  ],
  "favorite": [],
  "reserved_basket": []
}